{
  "simple": {
    "left": {
      "white_cube": [["wc1", "wc2"], []],
      "red_cube": [["rc1", "rc2"], []],
      "yellow_cube": [["yc1"], []],
      "yellow_brick": [["yb1"], []],
      "blue_brick": [["bb2"], []],
      "red_brick": [["rb2"], []]
    },
    "right": {
      "white_cube": [["wc1", "wc2"], []],
      "red_cube": [["rc1", "rc2"], []],
      "yellow_cube": [["yc1"], []],
      "yellow_brick": [["yb1"], []],
      "blue_brick": [["bb1"], []],
      "red_brick": [["rb1"], []]
    }
  },
  "complex": {
    "left": {
      "white_cube": [["wc2", "wc3", "wc4", "wc5"], []],
      "red_cube": [["rc2", "rc3", "rc4", "rc5"], []],
      "yellow_cube": [["yc1"], []],
      "blue_cube": [["bc2"], []],
      "light_cube": [["lc1", "lc2"], []],
      "olive_cube": [["oc2", "oc3"], []],
      "yellow_brick": [["yb2", "yb3", "yb4"], []],
      "blue_brick": [["bb2", "bb3"], []],
      "red_brick": [["rb1"], []]
    },
    "right": {
      "white_cube": [["wc1", "wc3", "wc4", "wc5"], []],
      "red_cube": [["rc1", "rc3", "rc4", "rc5"], []],
      "yellow_cube": [["yc1"], []],
      "blue_cube": [["bc1"], []],
      "light_cube": [["lc1", "lc2"], []],
      "olive_cube": [["oc1", "oc3"], []],
      "yellow_brick": [["yb1", "yb3", "yb4"], []],
      "blue_brick": [["bb1", "bb3"], []],
      "red_brick": [["rb1"], []]
    }
  }
}
